{
    "hotC_url": [
        "https://cdn.pixabay.com/photo/2020/08/17/17/03/flowers-5495947__340.jpg",
        "https://cdn.pixabay.com/photo/2020/08/24/20/02/flower-5514963__340.jpg",
        "https://cdn.pixabay.com/photo/2020/08/24/20/02/flower-5514963__340.jpg"
    ]
}
